Episode_No,Episode_score,Epsilon,No_of_frames,Mean_reward_for_the_past_100_episodes
1,-113.47987719208066,0.998,63,-113.47987719208066
2,-239.99418011169718,0.996004,91,-176.73702865188892
3,-77.99034270797861,0.994011992,71,-143.82146667058547
4,-308.52902901242413,0.992023968016,77,-184.99835725604515
5,-206.44099883057268,0.990039920079968,69,-189.28688557095066
6,30.538929348817817,0.9880598402398081,68,-152.64924975098924
7,-88.31317828583823,0.9860837205593285,80,-143.4583823988248
8,-129.54570059713205,0.9841115531182099,77,-141.71929717361323
9,-85.90215602459028,0.9821433300119734,79,-135.51739260149958
10,-209.0550539260724,0.9801790433519495,80,-142.87115873395686
11,-141.90061605720655,0.9782186852652456,79,-142.782927581525
12,-326.14266903061747,0.976262247894715,99,-158.06290603561604
13,13.065184921182194,0.9743097233989256,104,-144.89920673124695
14,-144.51904746507194,0.9723611039521278,68,-144.87205249794872
15,-336.0462211030814,0.9704163817442236,121,-157.61699707162424
16,-323.59264388872975,0.9684755489807352,91,-167.99047499769333
17,-229.72521009478373,0.9665385978827737,129,-171.62193000340454
18,-68.32151706320528,0.9646055206870082,67,-165.88301817339345
19,-115.42277995262768,0.9626763096456342,118,-163.2272161617742
20,-119.81366218238757,0.9607509570263429,114,-161.05653846280487
21,-324.426852255869,0.9588294551122902,121,-168.83607721485555
22,-136.20635633422341,0.9569117962020657,58,-167.35290808391773
23,-104.2117010522185,0.9549979726096616,105,-164.60763821297428
24,-84.95727187554482,0.9530879766644422,87,-161.2888729489147
25,-201.3519231166796,0.9511818007111134,86,-162.89139495562532
26,-122.39438579160579,0.9492794371096911,84,-161.3338176800861
27,-70.60857823311274,0.9473808782354717,118,-157.97362362649451
28,-206.48625887333986,0.9454861164790007,125,-159.70621774245325
29,-389.54417348823483,0.9435951442460427,120,-167.6316644923078
30,-198.0148942924148,0.9417079539575507,117,-168.64443881897805
31,-191.18837972596876,0.9398245380496356,134,-169.37166271920356
32,-94.76246490558366,0.9379448889735363,99,-167.04012528752793
33,-265.95810164647037,0.9360689991955893,89,-170.0376397226474
34,-223.22937620463202,0.9341968611971981,120,-171.60210256035285
35,-39.59935806760321,0.9323284674748037,122,-167.83059557484572
36,-76.52938423493916,0.930463810539854,61,-165.29445081540385
37,-120.56016638265687,0.9286028829187744,81,-164.08541610100528
38,-184.42355369313407,0.9267456771529368,152,-164.62063024816655
39,-151.68995828422328,0.9248921857986309,79,-164.2890745567834
40,-330.8582918101499,0.9230424014270336,95,-168.45330498811757
41,-79.62876613086911,0.9211963166241796,70,-166.2868528208676
42,-114.10103791133008,0.9193539239909312,106,-165.04433341825955
43,-164.97058117427775,0.9175152161429493,111,-165.04261824979488
44,-409.4968591263517,0.9156801857106633,119,-170.5983964515348
45,-82.05929661455025,0.913848825339242,88,-168.63086089960183
46,-118.79029746103177,0.9120211276885636,72,-167.54737039006767
47,-177.4334327885229,0.9101970854331864,121,-167.75771214322629
48,-26.297175318313563,0.9083766912623201,86,-164.81061762604062
49,-257.2998135031168,0.9065599378797955,90,-166.69815223577686
50,-109.28469379689601,0.9047468180040359,138,-165.54988306699926
51,-253.14341345986483,0.9029373243680279,93,-167.2674032707809
52,-245.44154826707504,0.9011314497192918,112,-168.77075221301735
53,-238.0273475096818,0.8993291868198532,103,-170.07748042616197
54,-113.67079731347614,0.8975305284462135,84,-169.0329122203715
55,-176.2146330123847,0.8957354673893211,124,-169.16348896204445
56,-251.35795972202723,0.8939439964545425,133,-170.63124736847269
57,-392.2250572694578,0.8921561084616334,115,-174.51885806848995
58,-203.56261960043037,0.8903717962447101,101,-175.01961257766135
59,-138.53129262745543,0.8885910526522206,78,-174.40116647681037
60,-109.63144797060055,0.8868138705469162,94,-173.32167116837354
61,-266.10228653497586,0.8850402428058224,86,-174.84266486290798
62,-302.15947947707116,0.8832701623202107,98,-176.89616187281385
63,-257.201693639326,0.8815036219955703,102,-178.1708528532347
64,-340.9868573153748,0.8797406147515792,122,-180.71485292295569
65,-122.7412184049436,0.877981133522076,146,-179.82295085344782
66,-113.55342607687349,0.8762251712550319,113,-178.81886714471185
67,-99.44827685114423,0.8744727209125218,90,-177.63423146868843
68,-125.61408816348094,0.8727237754706968,97,-176.8692293612589
69,-150.41614414209667,0.8709783279197554,78,-176.4858513146044
70,-117.2689597354735,0.8692363712639158,138,-175.63989572061678
71,-22.171531717959596,0.867497898521388,108,-173.47836946705823
72,-177.1492208289141,0.8657629027243453,135,-173.52935351375066
73,-190.4418380557911,0.8640313769188966,82,-173.76103138418958
74,-73.31045230949265,0.8623033141650589,113,-172.4035911264234
75,-144.04376208928994,0.8605787075367288,120,-172.02546007259497
76,-96.57781879375902,0.8588575501216553,59,-171.03272795050503
77,-101.00518973133467,0.857139835021412,146,-170.1232794022041
78,-195.69467809960713,0.8554255553513692,136,-170.45111784704264
79,-147.85528931854094,0.8537147042406664,107,-170.16509470111222
80,-322.4158733460212,0.8520072748321851,103,-172.0682294341736
81,-115.61467662218942,0.8503032602825207,78,-171.3712719920503
82,-115.20805047216885,0.8486026537619556,103,-170.686354656442
83,-145.2549208438512,0.8469054484544317,99,-170.37995183942283
84,-402.31779841281076,0.8452116375575228,117,-173.1411166795822
85,-489.7704026321707,0.8435212142824078,121,-176.86616710255385
86,-103.38553348651033,0.841834171853843,103,-176.01174113027426
87,-118.57313494540442,0.8401505035101353,86,-175.35152726608035
88,-394.02305282162604,0.838470202503115,121,-177.8364309655752
89,-44.66785368764869,0.8367932620981088,68,-176.340154816385
90,-136.4177316237302,0.8351196755739125,129,-175.89657233646662
91,-106.6186420512753,0.8334494362227647,117,-175.13527639926673
92,-157.64024820613116,0.8317825373503192,86,-174.94511304934133
93,-95.03965925774057,0.8301189722756185,105,-174.08591462147464
94,-184.41004081145985,0.8284587343310672,104,-174.19574575115533
95,-46.60073473022835,0.8268018168624051,89,-172.8526403719877
96,-92.4643278657083,0.8251482132286803,79,-172.01526211671398
97,-38.0480524793636,0.823497916802223,69,-170.6341568627207
98,-82.10784211114772,0.8218509209686186,132,-169.7308271203577
99,-66.77731510053871,0.8202072191266814,144,-168.69089265551105
100,-27.83990240137001,0.818566804688428,85,-167.28238275296965
101,-240.8272270999879,0.8169296710790511,85,-168.55585625204864
102,-180.9418790191308,0.815295811736893,161,-167.965333241123
103,-96.62249580462516,0.8136652201134192,105,-168.15165477208947
104,-186.6933242504179,0.8120378896731923,63,-166.9332977244694
105,-174.2961292262466,0.8104138138938459,66,-166.61184902842615
106,-80.62912572159188,0.8087929862660582,86,-167.72352957913026
107,-103.44906533205888,0.8071754002935261,117,-167.87488844959245
108,-110.93075573737994,0.805561049492939,92,-167.68873900099493
109,-63.5571901452095,0.8039499273939532,62,-167.46528934220112
110,-90.14545498039136,0.8023420275391653,70,-166.27619335274434
111,-110.31018722467877,0.800737343484087,135,-165.96028906441902
112,-122.54065612774613,0.7991358687971188,114,-163.92426893539033
113,-114.79530891311265,0.7975375970595246,106,-165.20287387373327
114,-114.30134399489907,0.7959425218654056,105,-164.90069683903158
115,-176.84036292438174,0.7943506368216747,189,-163.30863825724455
116,-115.2779134762309,0.7927619355480314,108,-161.22549095311956
117,-183.64143045920952,0.7911764116769353,160,-160.7646531567638
118,-107.92482774434943,0.7895940588535815,109,-161.16068626357526
119,-76.84483537059528,0.7880148707358743,146,-160.77490681775495
120,51.53073940939734,0.7864388409944025,104,-159.06146280183708
121,-124.09026527895801,0.7848659633124138,117,-157.05809693206797
122,-91.1024077543469,0.783296231385789,159,-156.60705744626918
123,-50.30552065128425,0.7817296389230174,91,-156.06799564225986
124,-42.70973738503493,0.7801661796451713,130,-155.64552029735475
125,-182.1186116975287,0.778605847285881,101,-155.4531871831633
126,-243.34966180775243,0.7770486355913092,131,-156.6627399433247
127,-175.58408371844158,0.7754945383201266,100,-157.71249499817804
128,-85.06853561055027,0.7739435492434863,79,-156.4983177655501
129,-69.4553180407053,0.7723956621449993,70,-153.29742921107484
130,-199.43833894246285,0.7708508708207094,137,-153.3116636575753
131,-146.29915753296012,0.769309169079068,106,-152.86277143564521
132,-75.17789388778911,0.7677705507409098,147,-152.66692572546725
133,-131.23036800786434,0.766235009639428,102,-151.31964838908118
134,-265.88733061283756,0.7647025396201492,99,-151.74622793316325
135,-90.9196416779361,0.763173134540909,107,-152.2594307692666
136,-57.01756525364677,0.7616467882718272,150,-152.06431257945368
137,-105.1532188190771,0.7601234946952835,161,-151.9102431038179
138,8.654887211428843,0.7586032477058929,128,-149.97945869477226
139,-119.06587119520488,0.7570860412104812,118,-149.65321782388207
140,-112.84573850807587,0.7555718691280602,148,-147.47309229086136
141,-122.23214769308018,0.7540607253898041,134,-147.89912610648346
142,-176.2664731439565,0.7525526039390245,152,-148.52078045880972
143,-72.67672481594249,0.7510474987311464,114,-147.59784189522637
144,-139.2144787654985,0.7495454037336841,90,-144.89501809161783
145,-52.73293845305062,0.7480463129262167,88,-144.60175451000282
146,-338.37320030914276,0.7465502203003642,127,-146.79758353848393
147,-313.84914443277705,0.7450571198597635,105,-148.16174065492646
148,-127.83144981030998,0.743567005620044,126,-149.17708339984642
149,-90.58862678668507,0.7420798716088038,120,-147.5099715326821
150,-93.19682818740469,0.7405957118655863,151,-147.3490928765872
151,-249.4780466494491,0.7391145204418551,120,-147.31243920848303
152,-72.95537828966465,0.7376362914009714,172,-145.58757750870893
153,-126.3249495393773,0.7361610188181695,137,-144.4705535290059
154,20.050025723741214,0.7346886967805332,119,-143.13334529863374
155,-222.12283592604672,0.733219319386972,153,-143.59242732777034
156,-102.71548948372667,0.7317528807481981,81,-142.10600262538733
157,-30.140019921181903,0.7302893749867018,172,-138.4851522519046
158,-48.34450772775351,0.7288287962367284,138,-136.93297113317783
159,-15.673377808316474,0.727371138644255,100,-135.70439198498642
160,-111.9406263710135,0.7259163963669665,101,-135.72748376899057
161,-115.68850656839317,0.7244645635742325,137,-134.22334596932473
162,-85.62118497367227,0.723015634447084,133,-132.05796302429073
163,-117.21615322224628,0.7215696031781899,120,-130.65810762011995
164,-29.15998889009738,0.7201264639718334,129,-127.5398389358672
165,-110.829304560737,0.7186862110438897,186,-127.42071979742514
166,-36.17583727430852,0.717248838621802,116,-126.64694390939948
167,-44.67433669237977,0.7158143409445584,89,-126.0992045078118
168,-128.6706216450354,0.7143827122626694,85,-126.12976984262735
169,-121.63949613897225,0.7129539468381441,82,-125.84200336259612
170,-25.278756917301635,0.7115280389444678,141,-124.9221013344144
171,-73.67376920660504,0.7101049828665789,102,-125.43712370930083
172,-202.8190531470221,0.7086847729008457,162,-125.69382203248195
173,-153.40699272696136,0.707267403355044,79,-125.32347357919363
174,-80.04603332603756,0.705852868548334,133,-125.3908293893591
175,-19.5532336011956,0.7044411628112373,93,-124.14592410447813
176,-197.53638904292995,0.7030322804856147,111,-125.15550980696986
177,-4.892508701800679,0.7016262159246435,114,-124.19438299667452
178,-26.242705291723084,0.7002229634927942,130,-122.49986326859567
179,-316.73049398088006,0.6988225175658086,131,-124.18861531521907
180,-124.31641755402555,0.697424872530677,135,-122.20762075729913
181,-44.26513659575673,0.6960300227856157,133,-121.49412535703478
182,-69.09160810680753,0.6946379627400444,139,-121.03296093338118
183,-9.855734847028003,0.6932486868145643,147,-119.67896907341293
184,-70.23635977739784,0.6918621894409351,174,-116.35815468705881
185,-20.470707414434685,0.6904784650620532,137,-111.66515773488145
186,-55.65161008715756,0.6890975081319292,131,-111.18781850088793
187,-101.7155904437326,0.6877193131156653,120,-111.01924305587121
188,-85.93179965523947,0.6863438744894339,80,-107.93833052420734
189,-72.92839656188227,0.684971186740455,146,-108.22093595294966
190,-111.38894705586758,0.6836012443669741,109,-107.97064810727105
191,-58.328717598089,0.6822340418782402,141,-107.48774886273917
192,-61.696770089360626,0.6808695737944838,111,-106.52831408157144
193,-25.312934192981146,0.6795078346468948,149,-105.83104683092388
194,-8.413200391499998,0.678148818977601,74,-104.07107842672427
195,-44.14210607570594,0.6767925213396458,111,-104.04649214017905
196,-47.499689569234704,0.6754389362969666,128,-103.59684575721433
197,-67.5895519905334,0.6740880584243727,115,-103.89226075232602
198,-125.94436663547336,0.6727398823075239,120,-104.33062599756926
199,-117.83079693132261,0.6713944025429088,153,-104.8411608158771
200,-50.91642115158113,0.670051613737823,111,-105.07192600337922
201,-35.34126391475954,0.6687115105103473,81,-103.01706637152692
202,-42.940126814288234,0.6673740874893266,130,-101.6370488494785
203,-94.97059688192626,0.6660393393143479,156,-101.62052986025154
204,-62.541074687518204,0.6647072606357192,109,-100.37900736462252
205,-104.54355795009485,0.6633778461144477,126,-99.68148165186102
206,-48.6314721092116,0.6620510904222189,105,-99.36150511573722
207,-92.09587829357628,0.6607269882413744,113,-99.24797324535238
208,-84.25499816802046,0.6594055342648917,167,-98.98121566965878
209,-81.68910896173473,0.6580867231963619,113,-99.16253485782403
210,-98.24880438827357,0.6567705497499692,92,-99.24356835190285
211,-86.34658923456143,0.6554570086504692,99,-99.00393237200167
212,-64.61102282933628,0.6541460946331682,164,-98.42463603901759
213,-35.466121283385675,0.6528378024439019,104,-97.63134416272032
214,-121.72001179155481,0.6515321268390141,92,-97.70553084068686
215,-108.75395589697372,0.6502290625853361,113,-97.0246667704128
216,1.2881431072559621,0.6489286044601654,146,-95.85900620457791
217,-77.3381101070133,0.6476307472512451,111,-94.79597300105596
218,-226.74639706836678,0.6463354857567426,909,-95.98418869429612
219,-83.86269492278873,0.6450428147852291,174,-96.05436728981807
220,-81.28630893027665,0.6437527291556586,103,-97.38253777321482
221,-119.1097038763499,0.6424652236973473,79,-97.33273215918875
222,-34.23090809292829,0.6411802932499525,109,-96.76401716257455
223,-60.971075508389816,0.6398979326634526,216,-96.8706727111456
224,1.0025665881209989,0.6386181367981257,111,-96.43354967141404
225,-97.09034134402658,0.6373409005245295,221,-95.58326696787903
226,-37.562789641834584,0.6360662187234805,186,-93.52539824621986
227,-186.82487920354515,0.6347940862860335,173,-93.63780620107087
228,-88.78642968681064,0.6335244981134615,117,-93.67498514183346
229,-60.59860740104056,0.6322574491172346,193,-93.58641803543682
230,-25.92932560742581,0.6309929342190002,166,-91.85132790208644
231,-45.08414818653807,0.6297309483505622,152,-90.83917780862221
232,0.40813978780222726,0.6284714864538611,140,-90.08331747186631
233,-85.94045793128358,0.6272145434809534,118,-89.63041837110052
234,-56.80411717882008,0.6259601143939915,152,-87.53958623676033
235,0.280909953768699,0.6247081941652035,108,-86.6275807204433
236,-78.02884754218458,0.6234587777768731,110,-86.83769354332865
237,-51.622116086838886,0.6222118602213194,158,-86.30238251600629
238,-79.53239205092575,0.6209674365008767,99,-87.18425530862983
239,-184.09013864840432,0.619725501627875,99,-87.8344979831618
240,-34.43062951079588,0.6184860506246193,156,-87.05034689318902
241,4.532691138358587,0.61724907852337,115,-85.78269850487463
242,-36.41414309038933,0.6160145803663232,198,-84.38417520433897
243,-30.67076510414573,0.6147825512055906,122,-83.96411560722099
244,-45.42821675889752,0.6135529861031793,98,-83.02625298715499
245,-83.06783324619991,0.612325880130973,106,-83.32960193508647
246,-113.93578256413473,0.611101228370711,213,-81.0852277576364
247,-76.25969854783153,0.6098790259139696,86,-78.70933329878694
248,-108.85270216648317,0.6086592678621416,121,-78.51954582234868
249,-8.225875441236639,0.6074419493264174,122,-77.69591830889419
250,-61.02839557028873,0.6062270654277645,76,-77.37423398272304
251,-97.72907728799521,0.6050146112969089,117,-75.85674428910849
252,-90.65016241481464,0.6038045820743151,103,-76.03369213036001
253,-57.09121588417477,0.6025969729101665,124,-75.34135479380797
254,-73.76718123319799,0.6013917789643461,177,-76.27952686337737
255,-26.891038642128933,0.6001889954064175,133,-74.32720889053819
256,-57.7468822220192,0.5989886174156046,199,-73.87752281792112
257,-77.15070437850817,0.5977906401807734,192,-74.34762966249437
258,-27.546383246438822,0.5965950589004119,165,-74.13964841768122
259,-126.06617858178129,0.595401868782611,123,-75.24357642541585
260,-100.57797814744191,0.5942110650450458,152,-75.12994994318015
261,-56.75685315426313,0.5930226429149558,109,-74.54063340903885
262,-60.93439298891722,0.5918365976291259,119,-74.29376548919132
263,-117.03521843868253,0.5906529244338676,128,-74.29195614135567
264,-22.864544033068555,0.5894716185849999,172,-74.22900169278537
265,-157.8440403608955,0.5882926753478298,111,-74.69914905078697
266,-81.8652642165859,0.5871160899971342,160,-75.15604332020975
267,-82.60779872199068,0.5859418578171399,104,-75.53537794050585
268,-97.00170927656725,0.5847699741015057,132,-75.21868881682117
269,13.090911555037025,0.5836004341533026,116,-73.87138473988108
270,-70.13128769318595,0.5824332332849961,126,-74.31991004763992
271,-128.43707769739976,0.5812683668184261,114,-74.86754313254787
272,-58.423260228269726,0.5801058300847892,89,-73.42358520336035
273,-60.83853495799352,0.5789456184246197,124,-72.49790062567068
274,37.21109147857649,0.5777877271877704,213,-71.32532937762454
275,-119.86702044329279,0.5766321517333949,199,-72.3284672460455
276,-34.93147616103954,0.5754788874299281,162,-70.7024181172266
277,-29.42142432775698,0.5743279296550683,140,-70.94770727348616
278,-449.9781553516547,0.5731792737957582,585,-75.18506177408547
279,-42.54224121492564,0.5720329152481667,166,-72.44317924642593
280,-44.52598542087787,0.5708888494176704,205,-71.64527492509444
281,-54.072099461405514,0.569747071718835,129,-71.74334455375094
282,-113.50083303930111,0.5686075775753973,137,-72.18743680307587
283,-36.980770438840594,0.5674703624202465,116,-72.458687158994
284,-49.99829634298532,0.5663354216954061,109,-72.25630652464987
285,-21.45187333703997,0.5652027508520152,216,-72.26611818387593
286,-83.09135559254281,0.5640723453503111,158,-72.54051563892978
287,-71.42731296725884,0.5629442006596105,120,-72.23763286416505
288,-69.92154694013264,0.5618183122582913,103,-72.07753033701397
289,-81.98758095403346,0.5606946756337747,120,-72.16812218093548
290,-92.43037646515961,0.5595732862825071,95,-71.97853647502842
291,-45.007887040738794,0.5584541397099421,162,-71.8453281694549
292,-114.90686438652637,0.5573372314305222,158,-72.37742911242657
293,-142.5900279024135,0.5562225569676611,108,-73.5502000495209
294,-46.18681934250524,0.5551101118537257,1000,-73.92793623903094
295,4.156805003301628,0.5539998916300183,171,-73.44494712824086
296,-127.10404849957936,0.5528918918467582,233,-74.2409907175443
297,-65.35627443764209,0.5517861080630647,176,-74.21865794201538
298,-95.61833184776526,0.5506825358469386,149,-73.91539759413831
299,-21.33621374710205,0.5495811707752447,223,-72.95045176229611
300,-12.711259365215852,0.5484820084336942,187,-72.56840014443246
301,38.53062796659458,0.5473850444168268,206,-71.82968122561891
302,-48.39335438459933,0.5462902743279932,284,-71.88421350132202
303,-29.033539820141826,0.5451976937793371,339,-71.22484293070418
304,-86.42056070656861,0.5441072983917784,156,-71.4636377908947
305,-56.65109056101712,0.5430190837949949,115,-70.98471311700392
306,-83.21800383733428,0.5419330456274049,108,-71.33057843428514
307,-179.83948721349202,0.5408491795361501,403,-72.20801452348431
308,21.526440836109828,0.5397674811770777,190,-71.15020013344301
309,63.832365810741464,0.5386879462147236,211,-69.69498538571824
310,-68.21751330741365,0.5376105703222942,94,-69.39467247490964
311,-96.21916132994781,0.5365353491816496,1000,-69.49339819586349
312,30.99778017594528,0.5354622784832863,156,-68.53731016581068
313,-15.92247178937636,0.5343913539263198,162,-68.3418736708706
314,-48.808908137281335,0.5333225712184672,114,-67.61276263432785
315,-266.54778918663953,0.5322559260760302,232,-69.19070096722452
316,-25.647122723542978,0.5311914142238782,142,-69.4600536255325
317,6.159158202244731,0.5301290313954304,1000,-68.62508094243992
318,-20.077346164600456,0.5290687733326396,220,-66.55839043340225
319,-66.18396507871756,0.5280106357859743,97,-66.38160313496155
320,-19.59865438952515,0.5269546145144024,177,-65.76472658955404
321,-49.70522115844278,0.5259007052853736,211,-65.07068176237495
322,-56.71058314348595,0.5248489038748029,182,-65.29547851288055
323,-26.26793790803265,0.5237992060670532,200,-64.94844713687696
324,-189.4133674478835,0.5227516076549191,619,-66.852606477237
325,-8.741235043411002,0.5217061044396093,1000,-65.96911541423084
326,-24.143001421769725,0.52066269223073,162,-65.8349175320302
327,-45.59791637736184,0.5196213668462686,90,-64.42264790376835
328,-50.36598603052048,0.5185821241125761,116,-64.03844346720547
329,-107.50556454081536,0.5175449598643509,163,-64.50751303860321
330,-35.34269396512458,0.5165098699446222,168,-64.6016467221802
331,-143.3564343651836,0.515476850204733,252,-65.58436958396665
332,-301.1046455223946,0.5144458965043235,489,-68.59949743706864
333,1.2352920619627819,0.5134170047113148,1000,-67.72773993713616
334,-76.26509773775513,0.5123901707018922,394,-67.92234974272553
335,-306.4204270433887,0.5113653903604884,414,-70.98936311269709
336,-6.549081935947498,0.5103426595797674,315,-70.27456545663473
337,-10.78861772091608,0.5093219742606079,193,-69.86623047297549
338,-336.82735981828085,0.5083033303120866,454,-72.43918015064902
339,-31.23552085486631,0.5072867236514624,266,-70.91063397271364
340,-57.35699329771582,0.5062721502041595,74,-71.13989761058286
341,-16.2753598575227,0.5052596059037512,234,-71.34797812054167
342,-50.325753457043405,0.5042490866919437,114,-71.4870942242082
343,-51.095246439099895,0.5032405885185598,1000,-71.69133903755775
344,-116.39711803784084,0.5022341073415226,141,-72.40102805034718
345,-78.29711214471737,0.5012296391268396,155,-72.35332083933235
346,20.580744653568757,0.5002271798485859,1000,-71.00815556715533
347,-68.7584245143482,0.4992267254888887,255,-70.93314282682049
348,-27.243290174587145,0.4982282720379109,75,-70.11704870690153
349,-9.933744473758267,0.4972318154938351,316,-70.13412739722673
350,-244.47653081961116,0.49623735186284745,951,-71.96860874971998
351,-85.39300020461073,0.49524487715912174,92,-71.84524797888612
352,-3.8397539709255994,0.4942543874048035,361,-70.97714389444724
353,-26.903176479931858,0.4932658786299939,140,-70.67526350040481
354,-289.7646183580375,0.4922793468727339,383,-72.8352378716532
355,11.174844483681602,0.4912947881789884,1000,-72.45457904039512
356,-61.453256224358555,0.4903121986026304,289,-72.4916427804185
357,-94.2161562920952,0.48933157420542517,130,-72.66229729955437
358,-37.715974263454925,0.48835291105701434,468,-72.76399320972453
359,-71.69089973594339,0.48737620523490033,320,-72.22024042126615
360,-81.28366860341914,0.48640145282443054,93,-72.02729732582593
361,-89.68218220764655,0.48542864991878165,162,-72.35655061635974
362,-31.85073382562966,0.48445779261894406,223,-72.06571402472687
363,-118.15378259342388,0.4834888770337062,880,-72.07689966627429
364,-260.81821007097983,0.4825218992796388,534,-74.45643632665342
365,2.577918865998271,0.4815568554810795,124,-72.85221673438447
366,33.93433906495801,0.4805937417701174,156,-71.69422070156902
367,-58.28144075464604,0.47963255428657714,111,-71.45095712189558
368,9.997773029339804,0.478673289178004,1000,-70.38096229883651
369,-206.2739665966998,0.477715942599648,781,-72.57461108035388
370,-227.65195979502087,0.4767605107144487,438,-74.14981780137224
371,-60.82746617886172,0.4758069896930198,128,-73.47372168618686
372,-6.186281314071896,0.4748553757136338,1000,-72.95135189704487
373,-81.27213725927334,0.47390566496220654,136,-73.15568792005767
374,-58.71649434925803,0.47295785363228215,151,-74.114963778336
375,-141.10519684351775,0.4720119379250176,478,-74.32734554233826
376,10.079372741616423,0.4710679140491676,1000,-73.8772370533117
377,-113.34100419769979,0.47012577822106927,201,-74.71643285201112
378,2.6158563072014402,0.46918552666462715,283,-70.19049273542257
379,-57.235806229429734,0.46824715561129787,202,-70.3374283855676
380,39.94903917366924,0.46731066130007526,1000,-69.49267813962214
381,-50.8154317711388,0.4663760399774751,1000,-69.46011146271948
382,-6.073959873041153,0.46544328789752015,1000,-68.38584273105688
383,-19.268899040032295,0.4645124013217251,126,-68.2087240170688
384,64.5707722805874,0.46358337651908166,1000,-67.06303333083306
385,98.92322560383316,0.4626562097660435,1000,-65.85928234142433
386,-67.02718530158725,0.4617308973465114,90,-65.69864063851477
387,-0.1652941405749715,0.46080743555181836,214,-64.98602045024795
388,51.7683701674161,0.4598858206807147,1000,-63.76912127917246
389,-32.11561402352848,0.4589660490393533,181,-63.270401609867406
390,-48.82406983202566,0.45804811694127456,167,-62.83433854353607
391,-45.79628070523604,0.457132020707392,98,-62.84222248018104
392,-30.719463743897848,0.45621775666597725,252,-62.00034847375477
393,-31.434777031801715,0.45530532115264527,179,-60.88879596504864
394,-20.257414472537334,0.45439471051033997,244,-60.629501916348964
395,-92.0808401086264,0.4534859210893193,125,-61.591878367468226
396,1.009072176193044,0.45257894924714065,265,-60.31074716071052
397,50.84232444901829,0.4516737913486464,1000,-59.1487611718439
398,26.48346307354005,0.4507704437659491,225,-57.927743222630845
399,-318.45414677327153,0.4498689028784172,514,-60.89892255289254
400,-70.63113371842653,0.4489691650726603,193,-61.47812129642463
401,54.15258121873344,0.448071226742515,1000,-61.32190176390324
402,-52.961831660853704,0.44717508428902997,161,-61.367586536665804
403,-191.03150545700055,0.4462807341204519,205,-62.98756619303438
404,14.876693323186899,0.445388172652211,148,-61.97459365273684
405,-81.93677442825683,0.44449739630690654,293,-62.227450491409236
406,-0.7471021150564123,0.4436084015142927,1000,-61.40274147418647
407,5.039417292138438,0.4427211847112641,160,-59.553952429130156
408,-23.946415336261865,0.4418357423418416,139,-60.00868099085386
409,-10.91140265982311,0.44095207085715793,200,-60.75611867555951
410,67.1197023546714,0.44007016671544363,1000,-59.402746518938656
411,-14.86061642891913,0.43919002638201277,292,-58.589161069928366
412,-116.98986366306671,0.43831164632924874,221,-60.069037508318495
413,15.804081923248447,0.43743502303659026,221,-59.75177197119226
414,-62.924771474436206,0.4365601529905171,294,-59.8929306045638
415,-50.50119490748865,0.43568703268453607,253,-57.73246466177229
416,-33.79126823511716,0.434815658619167,160,-57.81390611688803
417,107.71252575854261,0.43394602730192866,1000,-56.79837244132504
418,-59.57603488639997,0.4330781352473248,202,-57.19335932854304
419,-34.165881831272344,0.43221197897683017,268,-56.87317849606858
420,21.403905889052993,0.4313475550188765,249,-56.4631528932828
421,-56.473166650125485,0.4304848599088387,101,-56.53083234819964
422,28.40425370285471,0.42962389018902103,1000,-55.67968397973624
423,62.49566846891765,0.428764642408643,1000,-54.792047915966734
424,13.572914178747208,0.4279071131238257,1000,-52.762185099700424
425,-66.25657540457244,0.42705129889757804,1000,-53.33733850331204
426,-50.92142112424089,0.42619719629978287,305,-53.60512270033675
427,32.11176471396078,0.4253448019071833,189,-52.82802588942352
428,-82.08122608951669,0.424494112303369,344,-53.14517829001348
429,51.87638355052193,0.42364512407876226,1000,-51.55135880910011
430,31.08487503877418,0.4227978338306047,1000,-50.887083119061124
431,-24.899520375479554,0.42195223816294347,199,-49.70251397916408
432,108.57488934554551,0.4211083336866176,1000,-45.60571863048469
433,-60.68405619962272,0.4202661170192444,269,-46.22491211310053
434,-152.22695803845366,0.41942558478520586,288,-46.98453071610752
435,-46.38972596828805,0.4185867336156355,185,-44.38422370535652
436,5.275121842777481,0.4177495601484042,1000,-44.265981667569264
437,-374.6544096468029,0.4169140610281074,969,-47.90463958682815
438,40.656289892142254,0.4160802329060512,1000,-44.12980308972391
439,15.846438674113852,0.4152480724402391,1000,-43.65898349443412
440,-217.0529654648446,0.41441757629535864,495,-45.2559432161054
441,86.59999239391499,0.4135887411427679,1000,-44.227189693591015
442,-64.25098162227927,0.41276156366048233,164,-44.36644197524337
443,66.4380453755076,0.41193604053316135,1000,-43.1911090570973
444,-270.06950503703604,0.41111216845209503,734,-44.727832927089246
445,71.8325824463045,0.4102899441151908,1000,-43.22653598117903
446,78.80289786992903,0.40946936422696045,1000,-42.64431444901542
447,-23.094802663221955,0.40865042549850655,1000,-42.18767823050417
448,57.906635179728454,0.40783312464750954,1000,-41.33617897696101
449,-72.54712576756319,0.4070174583982145,255,-41.96231278989907
450,34.72008127905833,0.4062034234814181,1000,-39.17034666891236
451,18.691344699824054,0.40539101663445526,1000,-38.12950321986802
452,-0.7084066637599165,0.40458023460118636,170,-38.09818974679636
453,63.24636723694055,0.403771074131984,1000,-37.19669430962764
454,53.339056722702566,0.40296353198372004,213,-33.76565755882024
455,-260.5554891720818,0.4021576049197526,384,-36.48296089537787
456,129.9385182884416,0.40135328970991313,1000,-34.56904315024987
457,-78.95717873454471,0.4005505831304933,185,-34.41645337467437
458,-217.94164242317797,0.3997494819642323,133,-36.21871005627159
459,126.67823945358109,0.3989499830003039,1000,-34.235018664376355
460,74.02498645364878,0.3981520830343033,1000,-32.68193211380567
461,12.02631581202975,0.39735577886823464,194,-31.66484713360891
462,1.5454004487531943,0.39656106731049817,1000,-31.33088579086508
463,58.77664261469265,0.39576794517587716,1000,-29.561581538783912
464,25.728971103831814,0.3949764092855254,1000,-26.69610972703579
465,84.86744142128411,0.3941864564669544,1000,-25.873214501482934
466,48.81140208261436,0.39339808355402045,1000,-25.72444387130637
467,116.02471710393081,0.3926112873869124,1000,-23.981382292720603
468,-5.437757159508166,0.3918260648121386,204,-24.135737594609083
469,71.41564788605994,0.39104241268251433,1000,-21.358841449781483
470,55.8274896190949,0.3902603278571493,1000,-18.524046955640326
471,0.05295161857175401,0.389479807201435,228,-17.915242777665995
472,69.58624403395507,0.3887008475870321,1000,-17.157517524185725
473,36.967846772602286,0.38792344589185807,1000,-15.975117683866968
474,73.57192735792452,0.38714759900007434,1000,-14.65223346679514
475,8.440787551605112,0.3863733038020742,259,-13.156773622843914
476,24.124609075744768,0.38560055719447006,1000,-13.016321259502629
477,29.00260200804722,0.3848293560800811,1000,-11.59288519744516
478,42.61049175548516,0.38405969736792095,1000,-11.192938842962324
479,-187.05020467130345,0.3832915779731851,171,-12.49108282738106
480,116.00284623664214,0.38252499481723873,1000,-11.730544756751328
481,63.73627630711685,0.3817599448276042,1000,-10.585027675968773
482,89.73528033087021,0.380996424937949,1000,-9.626935273929657
483,95.33852454834314,0.3802344320880731,1000,-8.480861038045903
484,95.99207210187204,0.379473963223897,1000,-8.166648039833058
485,44.45976094999406,0.37871501529744916,169,-8.711282686371451
486,-60.11200075296381,0.37795758526685425,1000,-8.642130840885217
487,58.26843564458628,0.37720167009632055,1000,-8.057793543033604
488,-51.134459414354154,0.3764472667561279,346,-9.086821838851307
489,36.11686870261212,0.37569437222261565,1000,-8.4044970115899
490,111.24089409888737,0.3749429834781704,1000,-6.803847372280772
491,35.888471747805355,0.37419309751121405,1000,-5.986999847750357
492,74.21544517791375,0.3734447113161916,1000,-4.93765075853224
493,47.8711868687509,0.3726978218935592,646,-4.144591119526712
494,61.94680182575631,0.3719524262497721,1000,-3.3225489565437765
495,52.45297237597778,0.37120852139727256,1000,-1.8772108316977363
496,-59.89613771436439,0.370466104354478,133,-2.4862629306033104
497,89.51531718978669,0.36972517214576905,1000,-2.099533003195626
498,35.093472109558576,0.36898572180147754,1000,-2.0134329128354413
499,64.4327695791111,0.3682477503578746,1000,1.815436250688385
500,9.771268428225582,0.36751125485715885,137,2.6194602721549063
501,67.61974006654842,0.36677623234744455,1000,2.754131860633056
502,-25.95423557756722,0.3660426798827497,1000,3.024207821465921
503,-7.292687255966811,0.3653105945229842,203,4.861596003476258
504,59.99091649652282,0.3645799733339382,1000,5.312738235209617
505,111.9089277471655,0.3638508133872703,1000,7.251195256963839
506,34.88858434447526,0.3631231117604958,1000,7.607552121559156
507,50.412976047370535,0.3623968655369748,1000,8.061287709111477
508,-296.0471567792905,0.3616720718059009,349,5.340280294681191
509,68.57971906910096,0.3609487276622891,1000,6.135191511970431
510,31.708781450915684,0.3602268302069645,1000,5.781082302932876
511,59.36090136048051,0.35950637654655054,1000,6.523297480826872
512,50.28253522380283,0.35878736379345744,1000,8.196021469695568
513,28.89577393327602,0.3580697890658705,1000,8.326938389795842
514,52.411502220080315,0.35735364948773873,1000,9.48030112674101
515,-57.730559083905035,0.35663894218876324,348,9.408007484976844
516,27.531942942979654,0.3559256643043857,160,10.021239596757813
517,-180.98409365908972,0.3552138129757769,412,7.13427340258149
518,-87.95121660089703,0.35450338534982534,314,6.850521585436519
519,35.476172553135235,0.3537943785791257,1000,7.546942129280593
520,26.870118525841903,0.35308678982196745,1000,7.601604255648482
521,-58.51229819214042,0.35238061624232353,1000,7.581212940228335
522,46.93974480076246,0.3516758550098389,1000,7.766567851207411
523,101.7252877715345,0.3509725032998192,1000,8.158864044233578
524,100.38218964048964,0.35027055829321957,1000,9.026956798851003
525,95.78325546868126,0.3495700171766331,1000,10.64735510758354
526,29.107649657621266,0.3488708771422798,1000,11.447645815402161
527,135.36127780408668,0.34817313538799527,1000,12.48014094630342
528,33.87551353808283,0.3474767891172193,1000,13.639708342579416
529,101.08333138533779,0.34678183553898484,1000,14.131777820927573
530,75.97057005790953,0.34608827186790686,1000,14.580634771118929
531,89.13841964816733,0.34539609532417104,1000,15.721014171355396
532,-25.533001869250086,0.3447053031335227,247,14.379935259207441
533,97.34183426032622,0.3440158925272557,1000,15.96019416380693
534,61.28877280035392,0.3433278607422012,1000,18.095351472195006
535,86.33835536752476,0.34264120502071677,1000,19.422632285553135
536,53.65137124692331,0.3419559226106753,1000,19.906394779594596
537,94.63831570518296,0.34127201076545394,1000,24.59932203311445
538,-49.99404092191095,0.34058946674392304,153,23.692818724973915
539,79.88338374651916,0.3399082878104352,1000,24.33318817569797
540,1.299157816103076,0.3392284712348143,139,26.516709408507445
541,7.894195534988982,0.33855001429234466,1000,25.72965143991819
542,52.04964794239391,0.33787291426376,1000,26.892657735564924
543,52.824058087660326,0.33719716843523245,1000,26.756517862686454
544,166.21063263362117,0.336522774098362,1000,31.119319239393025
545,10.3460558511523,0.33584972855016526,159,30.5044539734415
546,103.67109607502772,0.33517802909306493,1000,30.75313595549249
547,81.62698393113205,0.3345076730348788,1000,31.80035382143603
548,10.293324761945982,0.33383865768880905,139,31.3242207172582
549,44.00171303202702,0.3331709803734314,1000,32.4897091052541
550,110.21463766613896,0.3325046384126845,1000,33.244654669124905
551,129.79959003808443,0.3318396291358591,1000,34.355737122507506
552,-52.98086956597123,0.3311759498775874,260,33.8330124934854
553,91.71701047451047,0.33051359797783225,1000,34.1177189258611
554,148.87851677989758,0.3298525707818766,1000,35.07311352643305
555,14.759964698334215,0.3291928656403128,118,37.826268065137214
556,32.54001377919335,0.3285344799090322,1000,36.85228302004473
557,110.29733015014043,0.32787741094921413,783,38.744828108891575
558,-7.500571448199478,0.3272216561273157,1000,40.84923881864137
559,77.25398707364786,0.32656721281506107,1000,40.35499629484203
560,25.285097627997033,0.32591407838943093,1000,39.86759740658552
561,-31.155427851905714,0.32526225023265204,339,39.435779969946154
562,-116.10178508934385,0.3246117257321867,100,38.25930811456519
563,65.22950110234761,0.3239625022807223,1000,38.323836699441735
564,100.42923125678573,0.32331457727616086,1000,39.07083930097127
565,47.00715298866601,0.32266794812160854,1000,38.692236416645095
566,-36.1719930073905,0.3220226122253653,240,37.84240246574505
567,96.55648657562574,0.3213785670009146,1000,37.647720160462
568,103.0409208068919,0.3207358098669128,1000,38.732506940125994
569,49.17269791650499,0.320094338247179,1000,38.51007744043044
570,-28.824300921653176,0.31945414957068463,145,37.663559535022976
571,60.2884756180686,0.31881524127154326,1000,38.26591477501794
572,57.386832124094745,0.3181776107890002,1000,38.14392065591934
573,18.18794534063657,0.3175412555674222,1000,37.95612164159968
574,90.18180133783324,0.3169061730562873,1000,38.12222038139876
575,23.947284186450545,0.3162723607101747,215,38.27728534774722
576,86.5626424193276,0.3156398159887544,1000,38.90166568118305
577,91.34602227485489,0.3150085363567769,1000,39.52509988385112
578,87.53010059651699,0.31437851928406335,1000,39.97429597226144
579,69.35441297134008,0.3137497622454952,1000,42.53834214868787
580,159.7208641819078,0.31312226272100424,1000,42.97552232814054
581,96.42653484468103,0.3124960181955622,1000,43.30242491351617
582,49.2530853260328,0.3118710261591711,1000,42.8976029634678
583,14.12962270239284,0.31124728410685276,1000,42.085513945008294
584,26.09708920290368,0.31062478953863903,1000,41.38656411601862
585,50.01800028756384,0.31000353995956176,218,41.442146509394306
586,89.41644262162418,0.30938353287964265,1000,42.9374309431402
587,104.58319312499465,0.30876476581388335,1000,43.400578517944275
588,69.95649621713827,0.3081472362822556,1000,44.611488074259206
589,88.0829730612918,0.3075309418096911,1000,45.131149117846
590,11.980698110401407,0.3069158799260717,1000,44.13854715796113
591,134.79096620968403,0.3063020481662196,1000,45.127572102579926
592,75.36383058345679,0.30568944406988713,1000,45.13905595663534
593,-29.991288319127925,0.30507806518174735,1000,44.36043120475656
594,-13.403812879070397,0.3044679090513839,1000,43.606925057708295
595,61.13096401018535,0.3038589732332811,177,43.69370497405036
596,82.48058431281383,0.3032512552868145,1000,45.117472194322154
597,51.19214763942533,0.30264475277624087,1000,44.73424049881855
598,-5.573154532734389,0.30203946327068837,1000,44.32757423239563
599,92.40224425201788,0.301435384344147,1000,44.60726897912469
600,86.26640741105041,0.3008325135754587,1000,45.37222036895294
601,100.2885653333436,0.3002308485483078,1000,45.69890862162089
602,58.96489522381981,0.2996303868512112,1000,46.54809992963475
603,164.20902086108188,0.29903112607750876,1000,48.26311701080524
604,116.45499240944939,0.29843306382535373,1000,48.827757769934486
605,-60.28185718928761,0.29783619769770303,1000,47.105849920569966
606,8.002151425472036,0.2972405253023076,124,46.836985591379936
607,15.013850164575985,0.296646044251703,100,46.482994332551996
608,96.5577627454542,0.2960527521631996,1000,50.40904352779944
609,117.46998710995705,0.29546064665887317,1000,50.897946208208005
610,69.77286665542681,0.29486972536555545,1000,51.27858706025311
611,165.52609195644368,0.29427998591482435,1000,52.340238966212745
612,124.03180549468755,0.2936914259429947,1000,53.07773166892159
613,-8.509468793415607,0.2931040430911087,178,52.70367924165468
614,20.723849727277724,0.2925178350049265,193,52.38680271672664
615,83.22802050307207,0.29193279933491667,1000,53.79638851259642
616,98.69831636350361,0.2913489337362468,1000,54.508052246801654
617,22.260724712683697,0.2907662358687743,112,56.54050043051939
618,88.42680695314141,0.2901847033970368,1000,58.30428066605977
619,10.652539237851727,0.2896043339902427,195,58.05604433290694
620,4.4204160053455155,0.2890251253222622,288,57.83154730770198
621,104.39972655089764,0.2884470750716177,1000,59.460667555132375
622,100.5496567425906,0.2878701809214745,1000,59.996766674550656
623,58.996798546696695,0.28729444055963155,1000,59.569481782302276
624,216.89436613212933,0.28671985167851227,774,60.734603547218654
625,3.263777673746503,0.2861464119751552,119,59.80940876926931
626,143.0324363915874,0.2855741191512049,1000,60.948656636608966
627,259.8262498790444,0.2850029709129025,973,62.19330635735855
628,218.14539862693385,0.2844329649710767,697,64.03600520824705
629,111.79399265092412,0.2838640990411345,1000,64.14311182090292
630,115.09119120172997,0.28329637084305226,1000,64.53431803234113
631,-22.39153639386376,0.2827297781013662,77,63.41901847192081
632,-43.831431638168155,0.28216431854516344,115,63.236034174231634
633,211.43008148530333,0.2815999899080731,623,64.37691664648139
634,136.09457873376996,0.281036789928257,1000,65.12497470581555
635,204.49721474360695,0.2804747163484005,489,66.30656329957637
636,21.36755370647927,0.2799137669157037,1000,65.98372512417194
637,261.4594601960382,0.2793539393818723,970,67.6519365690805
638,-47.38177881596138,0.2787952315031086,1000,67.67805919013999
639,112.0804622676469,0.27823764104010235,1000,68.00002997535127
640,226.74857310308352,0.27768116575802215,892,70.25452412822108
641,-162.93414179735575,0.2771258034265061,181,68.54624075489762
642,129.78121916380675,0.2765715518196531,1000,69.32355646711176
643,88.06861515532708,0.2760184087160138,1000,69.67600203778844
644,-53.95051631342035,0.27546637189858175,200,67.47439054831801
645,92.22075078831176,0.2749154391547846,1000,68.2931374976896
646,47.59010804414764,0.27436560827647505,1000,67.73232761738082
647,82.62284060359832,0.2738168770599221,1000,67.74228618410548
648,187.16131962609848,0.2732692433058022,762,69.51096613274699
649,101.68287075406467,0.2727227048191906,1000,70.08777770996737
650,15.06534421661533,0.27217725940955223,152,69.13628477547213
651,-15.037819062361208,0.2716329048907331,105,67.68791068446768
652,125.59498638793963,0.2710896390809516,1000,69.47366924400677
653,-25.656431584663366,0.2705474598027897,1000,68.29993482341503
654,-25.85518343111417,0.27000636488318414,105,66.55259782130493
655,-205.38290111683838,0.26946635215341774,172,64.3511691631532
656,189.602078092275,0.2689274194491109,691,65.92178980628404
657,39.334225240425425,0.2683895646102127,1000,65.21215875718688
658,-29.960977356058407,0.2678527854809923,135,64.98755469810828
659,-12.303852849040709,0.2673170799100303,151,64.09197629888139
660,114.28099055755156,0.2667824457502102,1000,64.98193522817695
661,115.10534824775284,0.2662488808587098,1000,66.44454298917353
662,34.87179747096394,0.26571638309699236,123,67.95427881477661
663,8.456512366887608,0.26518495033079836,249,67.38654892742201
664,-222.71533175980255,0.2646545804301368,145,64.15510329725613
665,-16.528426289200596,0.26412527126927654,113,63.51974750447746
666,95.54248377456146,0.26359702072673796,1000,64.83689227229696
667,119.16137061286646,0.2630698266852845,1000,65.06294111266939
668,242.70215370311385,0.26254368703191394,617,66.4595534416316
669,206.7056578810858,0.2620185996578501,968,68.03488304127742
670,139.02352837520738,0.2614945624585344,1000,69.71336133424602
671,107.2879904052928,0.26097157333361737,1000,70.18335648211826
672,243.85221750257568,0.2604496301869501,629,72.04801033590307
673,257.97024188697173,0.2599287309265762,302,74.44583330136642
674,162.65701791244095,0.259408873464723,1000,75.1705854671125
675,239.17981001062026,0.25889005571779355,642,77.32291072535419
676,94.8495044973539,0.25837227560635795,1000,77.40577934613447
677,55.7173205916398,0.25785553105514525,1000,77.04949232930232
678,257.74038033465786,0.25733981999303496,898,78.75159512668372
679,110.8521324070909,0.2568251403530489,1000,79.16657232104122
680,-77.60946694711564,0.2563114900723428,104,76.79326900975099
681,98.40220636199557,0.25579886709219807,1000,76.81302572492415
682,-24.482360779813888,0.25528726935801366,140,76.07567126386567
683,148.63786810590767,0.25477669481929766,1000,77.42075371790082
684,83.73252241769502,0.25426714142965906,1000,77.99710805004875
685,-6.444579670704869,0.25375860714679976,260,77.43248225046605
686,-18.608635113296145,0.25325108993250617,243,76.35223147311684
687,203.98494505544843,0.25274458775264114,846,77.34624899242138
688,92.05819937852615,0.25223909857713583,1000,77.56726602403528
689,129.75616909588075,0.25173462037998157,1000,77.98399798438116
690,-5.6885223049223725,0.2512311511392216,102,77.80730578022792
691,104.10740844945266,0.25072868883694316,1000,77.5004702026256
692,-13.19581088712954,0.2502272314592693,117,76.61487378791975
693,69.99175071377594,0.24972677699635074,1000,77.61470417824879
694,25.642614644176827,0.24922732344235804,1000,78.00516845348126
695,261.8015702005764,0.24872886879547332,907,80.01187451538516
696,210.3934201821753,0.24823141105788238,551,81.29100287407879
697,95.28895816844829,0.2477349482357666,1000,81.73197097936901
698,64.88854860640608,0.24723947833929508,1000,82.4365880107604
699,50.24470511975871,0.2467449993826165,1000,82.01501261943783
700,2.0753109256099833,0.24625150938385126,266,81.17310165458342
701,229.17990103308694,0.24575900636508355,444,82.46201501158085
702,33.83847263760933,0.24526748835235337,101,82.21075078571874
703,9.043854861237818,0.24477695337564867,158,80.65909912572029
704,137.8142536910985,0.24428739946889738,1000,80.87269173853677
705,17.62460867242403,0.24379882466995959,118,81.65175639715389
706,161.46383808349933,0.24331122702061966,1000,83.18637326373417
707,-53.139454247922245,0.24282460456657842,252,82.50484021960918
708,239.4101574473549,0.24233895535744526,662,83.9333641666282
709,28.86614509643681,0.24185427744673038,98,83.047325746493
710,192.55660674135197,0.24137056889183692,599,84.27516314735225
711,-104.63431655902436,0.24088782775405324,410,81.57355906219756
712,231.5896789152213,0.24040605209854513,279,82.6491377964029
713,-0.9476472567074126,0.23992523999434803,111,82.72475601176998
714,139.14124898165656,0.23944538951435934,1000,83.90893000431377
715,250.64230124691193,0.23896649873533063,769,85.58307281175216
716,-41.66379410119362,0.23848856573785998,1000,84.17945170710519
717,127.01249181659296,0.23801158860638427,1000,85.22696937814428
718,245.79776705779324,0.2375355654291715,734,86.80067897919079
719,172.76986270090865,0.23706049429831316,405,88.42185221382137
720,25.381069899265043,0.23658637330971655,168,88.63145875276058
721,7.673455594007621,0.23611320056309712,108,87.66419604319168
722,258.2711361081052,0.2356409741619709,682,89.24141083684682
723,207.33299696559303,0.23516969221364697,453,90.7247728210358
724,-16.764808494264045,0.2346993528292197,212,88.38818107477185
725,113.05551271011055,0.23422995412356126,1000,89.4860984251355
726,63.01120887223314,0.23376149421531414,1000,88.68588614994195
727,11.010036532459694,0.2332939712268835,257,86.19772401647607
728,-66.39152055436686,0.23282738328442973,80,83.3523548246631
729,232.46791167032958,0.23236172851786085,624,84.55909401485715
730,71.08680168698336,0.23189700506082514,1000,84.11905011970968
731,-37.06520978152403,0.2314332110507035,207,83.97231338583308
732,132.3926687082667,0.23097034462860208,1000,85.73455438929744
733,132.63943907050088,0.23050840393934488,1000,84.94664796514941
734,283.2063961352882,0.2300473871314662,777,86.41776613916461
735,143.07004735026098,0.22958729235720327,1000,85.80349446523113
736,199.70956700608883,0.22912811777248887,920,87.58691459822721
737,-26.574926270830105,0.22866986153694388,160,84.70657073355852
738,104.27895553913937,0.22821252181387,1000,86.22317807710954
739,164.33161467871463,0.22775609677024225,1000,86.74568960122022
740,97.45216244127307,0.22730058457670177,1000,85.45272549460213
741,162.19804345054715,0.22684598340754836,1000,88.70404734708116
742,109.5838674954485,0.22639229144073325,1000,88.50207383039759
743,61.29105310782546,0.22593950685785177,160,88.23429820992256
744,102.23957332776963,0.22548762784413606,1000,89.79619910633444
745,121.56773388857044,0.2250366525884478,1000,90.08966893733705
746,181.98493564245092,0.2245865792832709,974,91.43361721332009
747,126.5291505029013,0.22413740612470434,1000,91.87268031231311
748,305.4426652401296,0.22368913131245494,496,93.05549376845342
749,123.83506274965154,0.22324175304983002,1000,93.27701568840928
750,138.2674440339228,0.22279526954373036,1000,94.50903668658236
751,108.65244920655064,0.2223496790046429,1000,95.74593936927147
752,23.052640328969957,0.2219049796466336,177,94.72051590868179
753,258.53692501625187,0.22146116968734034,639,97.56244947469094
754,240.15185581816814,0.22101824734796566,536,100.22251986718376
755,249.40091469452537,0.22057621085326973,670,104.77035802529737
756,224.50289517472982,0.2201350584315632,380,105.11936619612193
757,131.1640642933716,0.21969478831470007,1000,106.03766458665139
758,179.40997013076972,0.21925539873807068,1000,108.13137406151968
759,234.35403267082455,0.21881688794059453,860,110.59795291671833
760,110.38496260929296,0.21837925416471335,1000,110.55899263723573
761,133.44822778256753,0.21794249565638393,1000,110.74242143258391
762,238.08112477046134,0.21750661066507115,873,112.77451470557885
763,112.50574832392954,0.21707159744374102,1000,113.81500706514929
764,243.63602867398606,0.21663745424885353,449,118.47852066948717
765,56.89071721786692,0.21620417934035582,192,119.21271210455784
766,44.44013530632604,0.2157717709816751,1000,118.70168861987548
767,145.71598112209324,0.21534022743971176,1000,118.96723472496775
768,247.61388376431998,0.21490954698483233,448,119.01635202557982
769,98.9180311950812,0.21447972789086267,1000,117.93847575871978
770,248.3177145941117,0.21405076843508095,671,119.03141762090881
771,248.40565051571286,0.21362266689821077,679,120.44259422201301
772,232.74673389185904,0.21319542156441434,787,120.33153938590587
773,267.99830856488586,0.21276903072128553,595,120.43182005268501
774,94.74184286594587,0.21234349265984295,1000,119.75266830222004
775,279.22112022011424,0.21191880567452326,927,120.15308140431497
776,109.92795082489555,0.21149496806317422,1000,120.30386586759039
777,97.14768189243495,0.21107197812704787,1000,120.71816948059835
778,188.41022412111946,0.21064983417079378,573,120.02486791846297
779,275.50778088318293,0.21022853450245219,283,121.67142440322388
780,37.21390185855836,0.2098080774334473,128,122.81965809128066
781,131.52221073387548,0.20938846127858038,1000,123.15085813499945
782,283.2595897488769,0.20896968435602323,585,126.22827764028634
783,240.16532931575432,0.2085517449873112,540,127.1435522523848
784,98.6386398079378,0.20813464149733657,1000,127.29261342628725
785,225.03415449133797,0.2077183722143419,965,129.60740076790765
786,216.22369072675863,0.2073029354699132,458,131.9557240263082
787,255.84231220701824,0.20688832959897338,574,132.47429769782389
788,250.4943098571658,0.20647455293977543,831,134.0586588026103
789,13.711921572202812,0.20606160383389588,191,132.89821632737352
790,256.9623889835422,0.2056494806262281,557,135.52472544025818
791,235.7925567177888,0.20523818166497565,989,136.84157692294153
792,294.59321567621106,0.2048277053016457,478,139.91946718857494
793,109.42640280437341,0.20441804989104242,1000,140.3138137094809
794,243.93049009996054,0.20400921379126033,536,142.49669246403874
795,265.8797052567211,0.20360119536367782,385,142.5374738146002
796,24.61522930642633,0.20319399297295046,163,140.67969190584267
797,53.60946360245097,0.20278760498700457,179,140.26289696018273
798,245.09737246335993,0.20238202977703057,278,142.06498519875228
799,11.960906364921456,0.2019772657174765,105,141.68214721120393
800,131.5331181266511,0.20157331118604155,1000,142.97672528321434
801,120.83028173420195,0.20117016456366946,1000,141.8932290902255
802,131.94566957701477,0.20076782423454212,1000,142.87430105961954
803,33.70763243333559,0.20036628858607303,189,143.12093883534052
804,242.09324605161217,0.19996555600890087,643,144.16372875894564
805,42.640252822885884,0.19956562489688306,124,144.41388520045027
806,14.90540410018906,0.1991664936470893,172,142.94830086061714
807,250.91810393844116,0.1987681606597951,779,145.98887644248077
808,229.34019359613683,0.19837062433847552,359,145.8881768039686
809,-2.1996983559848644,0.19797388308979857,92,145.57751836944436
810,223.11527026776957,0.19757793532361898,539,145.88310500470857
811,133.9880866716201,0.19718277945297175,1000,148.26932903701498
812,238.2097068294887,0.1967884138940658,285,148.33552931615765
813,229.42861017395208,0.19639483706627767,496,150.63929189046425
814,106.90979437039141,0.1960020473921451,1000,150.31697734435159
815,147.18093647348556,0.1956100432973608,1000,149.28236369661735
816,255.2264088602875,0.19521882321076608,823,152.25126572623216
817,272.25884620437705,0.19482838556434456,755,153.70372927011
818,222.5244331288174,0.1944387287932159,783,153.47099593082024
819,183.16497784461507,0.19404985133562946,833,153.57494708225732
820,160.593834450341,0.1936617516329582,685,154.9270747277681
821,263.1555093680688,0.19327442812969228,714,157.4818952655087
822,263.3280960141149,0.1928878792734329,702,157.53246486456877
823,238.35820442115386,0.19250210351488603,517,157.84271693912441
824,262.0163393806662,0.19211709930785625,448,160.6305284178737
825,262.26496917745703,0.19173286510924054,917,162.12262298254717
826,181.62734987999485,0.19134939937902207,715,163.30878439262477
827,234.86798711425948,0.19096670058026402,619,165.54736389844277
828,237.68335352419518,0.1905847671791035,832,168.58811263922843
829,245.5087847524544,0.1902035976447453,588,168.71852137004967
830,299.0766187564443,0.1898231904494558,334,170.99841954074427
831,217.79415092688345,0.1894435440685569,827,173.54701314782832
832,126.91075765618898,0.1890646569804198,1000,173.4921940373075
833,267.28832841408,0.18868652766645896,499,174.83868293074332
834,51.115907088105274,0.18830915461112605,106,172.51777804027148
835,173.38817873710053,0.1879325363019038,1000,172.8209593541399
836,240.7654170650338,0.18755667122929998,613,173.23151785472936
837,68.99811762335729,0.18718155788684138,1000,174.1872482936712
838,200.3505399601766,0.1868071947710677,476,175.14796413788162
839,253.15726982992774,0.18643358038152555,584,176.03622068939373
840,249.71472580286093,0.1860607132207625,391,177.5588463230096
841,279.69082154312025,0.18568859179432098,387,178.73377410393536
842,304.78879284752315,0.18531721461073233,495,180.68582335745612
843,131.2375759648343,0.18494658018151086,1000,181.38528858602618
844,161.23914000210215,0.18457668702114785,498,181.9752842527695
845,240.96123276036272,0.18420753364710554,282,183.16921924148747
846,253.54437449280604,0.18383911857981133,728,183.88481362999102
847,230.34330823910062,0.1834714403426517,627,184.922955207353
848,240.6661212455802,0.1831044974619664,658,184.2751897674075
849,223.89370179194077,0.18273828846704246,411,185.2757761578304
850,283.9621271991435,0.18237281189010837,915,186.73272298948257
851,251.3352185018431,0.18200806626632815,337,188.15955068243554
852,260.1527627053258,0.1816440501337955,326,190.53055190619907
853,223.553373361504,0.18128076203352791,754,190.18071638965156
854,283.7696946228036,0.18091820050946086,700,190.61689477769795
855,252.48684367878792,0.18055636410844195,296,190.6477540675406
856,271.13788675631514,0.18019525138022507,441,191.1141039833564
857,-19.068326854437146,0.17983486087746461,1000,189.61178007187831
858,32.13072624089568,0.17947519115570967,138,188.1389876329796
859,280.6796960585441,0.17911624077339824,371,188.6022442668568
860,253.40812743300717,0.17875800829185146,443,190.0324759150939
861,272.70677419381724,0.17840049227526775,696,191.42506137920643
862,209.86768426326515,0.1780436912907172,921,191.14292697413447
863,187.78284556645156,0.17768760390813576,937,191.89569794655975
864,86.58728797363787,0.17733222870031948,1000,190.32521053955625
865,270.31799053358134,0.17697756424291883,277,192.45948327271336
866,88.33443614622915,0.17662360911443298,1000,192.8984262811124
867,273.18151054952966,0.17627036189620413,323,194.17308157538676
868,154.08744274373532,0.17591782117241173,1000,193.2378171651809
869,270.3103373000258,0.17556598553006691,846,194.95174022623036
870,232.00987566876506,0.1752148535590068,463,194.7886618369769
871,214.3500795139254,0.17486442385188877,815,194.448106126959
872,251.80610536035095,0.17451469500418498,425,194.63869984164398
873,239.27739034507036,0.17416566561417662,446,194.3514906594458
874,263.0872378283913,0.17381733428294827,754,196.03494460907027
875,225.9285836581876,0.17346969961438236,926,195.50201924345095
876,162.0200620759478,0.1731227602151536,1000,196.02294035596148
877,242.95239987225958,0.1727765146947233,726,197.4809875357597
878,199.8528314780836,0.17243096166533387,781,197.59541360932934
879,105.09330555905825,0.1720860997420032,1000,195.8912688560881
880,275.5333466694493,0.17174192754251918,328,198.27446330419704
881,231.57800598058873,0.17139844368743415,229,199.27502125666416
882,242.04151613788892,0.17105564680005927,499,198.86284052055424
883,252.01188554737803,0.17071353550645915,729,198.9813060828705
884,4.954737686811072,0.17037210843544623,141,198.0444670616592
885,254.72375139385107,0.17003136421857534,711,198.34136303068436
886,239.6597030084892,0.1696913014901382,651,198.57572315350168
887,40.794504708441536,0.16935191888715792,124,196.42524507851596
888,10.945134612492282,0.1690132150493836,183,194.0297533260692
889,263.15072934566103,0.16867518861928482,371,196.52414140380372
890,242.1780813017796,0.16833783824204626,355,196.37629832698613
891,253.4028724409137,0.16800116256556216,687,196.55240148421737
892,241.9119398770254,0.16766516024043104,334,196.02558872622555
893,-31.320798003680466,0.16732982991995018,112,194.61811671814502
894,250.53195388330144,0.1669951702601103,475,194.68413135597842
895,256.42194858233347,0.16666117991959006,326,194.58955378923451
896,132.3208021492348,0.16632785755975088,1000,195.66660951766266
897,238.02856106520315,0.16599520184463137,325,197.51080049229017
898,114.54411861334434,0.16566321144094212,1000,196.20526795378996
899,281.67489938785457,0.16533188501806023,424,198.90240788401925
900,252.48048030143627,0.1650012212480241,437,200.11188150576717
